…
```r
stepsPerDay <- data %>% 
  filter(!is.na(steps)) %>%
  group_by(date) %>%
  summarize(steps = sum(steps)) %>%
  print
```

```
## `summarise()` ungrouping output (override with `.groups` argument)
```

```
## # A tibble: 53 x 2
##    date       steps
##    <date>     <int>
##  1 2012-10-02   126
##  2 2012-10-03 11352
##  3 2012-10-04 12116
##  4 2012-10-05 13294
##  5 2012-10-06 15420
##  6 2012-10-07 11015
##  7 2012-10-09 12811
##  8 2012-10-10  9900
##  9 2012-10-11 10304
## 10 2012-10-12 17382
## # ... with 43 more rows
```
…
```r
meaninterval <- data %>%
  filter(!is.na(steps)) %>%
  group_by(interval) %>%
  summarise (Average = mean(steps)) %>%
  print
```

```
## `summarise()` ungrouping output (override with `.groups` argument)
```

```
## # A tibble: 288 x 2
##    interval Average
##       <int>   <dbl>
##  1        0  1.72  
##  2        5  0.340 
##  3       10  0.132 
##  4       15  0.151 
##  5       20  0.0755
##  6       25  2.09  
##  7       30  0.528 
##  8       35  0.868 
##  9       40  0     
## 10       45  1.47  
## # ... with 278 more rows
```
…
```r
Allsteps <- datafull %>%
  group_by(date) %>%
  summarise(steps=sum(steps)) %>%
  print()
```

```
## `summarise()` ungrouping output (override with `.groups` argument)
```

```
## # A tibble: 61 x 2
##    date        steps
##    <date>      <dbl>
##  1 2012-10-01 10766.
##  2 2012-10-02   126 
##  3 2012-10-03 11352 
##  4 2012-10-04 12116 
##  5 2012-10-05 13294 
##  6 2012-10-06 15420 
##  7 2012-10-07 11015 
##  8 2012-10-08 10766.
##  9 2012-10-09 12811 
## 10 2012-10-10  9900 
## # ... with 51 more rows
```
…
```r
datafullmean <- datafull %>%
  group_by(interval,daytype) %>%
  summarise (steps=mean(steps)) %>%
  print()
```

```
## `summarise()` regrouping output by 'interval' (override with `.groups` argument)
```

```
## # A tibble: 576 x 3
## # Groups:   interval [288]
##    interval daytype   steps
##       <int> <chr>     <dbl>
##  1        0 Weekday 2.25   
##  2        0 Weekend 0.215  
##  3        5 Weekday 0.445  
##  4        5 Weekend 0.0425 
##  5       10 Weekday 0.173  
##  6       10 Weekend 0.0165 
##  7       15 Weekday 0.198  
##  8       15 Weekend 0.0189 
##  9       20 Weekday 0.0990 
## 10       20 Weekend 0.00943
## # ... with 566 more rows
```
…
